…
> tcens = rbinom(n = N, prob = 0.3, size = 1)

> y_cox = cbind(time = ty, status = 1 - tcens)

> fit_cox = glmnet(x_cox, y_cox, family = "cox", alpha = 0.5)

> myglance(fit1)
# A tibble: 1 x 6
  nulldev npasses  nobs family   n_lambda alpha
    <dbl>   <int> <int> <chr>       <int> <dbl>
1    90.7     281   100 gaussian       66     1

> mytidy(fit1)
# A tibble: 1,056 x 3
# Groups:   step [66]
   term         step estimate
   <chr>       <dbl>    <dbl>
 1 (Intercept)     1 -0.0732 
 2 (Intercept)     2 -0.0719 
 3 V7              2  0.0191 
 4 (Intercept)     3 -0.0701 
 5 V7              3  0.0358 
 6 V11             3 -0.00594
 7 (Intercept)     4 -0.0678 
 8 V7              4  0.0496 
 9 V8              4 -0.00670
10 V11             4 -0.0185 
# ... with 1,046 more rows

> mytidy(fit1, what = "dev")
# A tibble: 66 x 5
   alpha  step lambda dev.ratio    df
   <dbl> <int>  <dbl>     <dbl> <int>
 1     1     1 0.193    0           0
 2     1     2 0.176    0.00698     1
 3     1     3 0.160    0.0147      2
 4     1     4 0.146    0.0255      3
 5     1     5 0.133    0.0361      3
 6     1     6 0.121    0.0449      3
 7     1     7 0.111    0.0531      4
 8     1     8 0.101    0.0625      4
 9     1     9 0.0918   0.0708      5
10     1    10 0.0836   0.0779      5
# ... with 56 more rows

> myglance(fit3)
# A tibble: 1 x 6
  nulldev npasses  nobs family      n_lambda alpha
    <dbl>   <int> <int> <chr>          <int> <dbl>
1    276.    2435   100 multinomial       74   0.5

> mytidy(fit3)
# A tibble: 4,094 x 4
# Groups:   step [74]
   class term   step estimate
   <chr> <chr> <dbl>    <dbl>
 1 1     ""        1   0.0432
 2 2     ""        1   0.117 
 3 3     ""        1  -0.0368
 4 4     ""        1  -0.124 
 5 1     ""        2   0.0437
 6 2     ""        2   0.118 
 7 3     ""        2  -0.0327
 8 3     "V15"     2   0.0508
 9 4     ""        2  -0.129 
10 4     "V11"     2   0.0438
# ... with 4,084 more rows

> mytidy(fit3, what = "dev")
# A tibble: 74 x 5
   alpha  step lambda dev.ratio    df
   <dbl> <int>  <dbl>     <dbl> <int>
 1   0.5     1  0.310 -1.61e-16     0
 2   0.5     2  0.283  9.01e- 3     2
 3   0.5     3  0.258  1.78e- 2     2
 4   0.5     4  0.235  2.60e- 2     2
 5   0.5     5  0.214  3.36e- 2     2
 6   0.5     6  0.195  4.07e- 2     2
 7   0.5     7  0.178  5.01e- 2     4
 8   0.5     8  0.162  5.98e- 2     5
 9   0.5     9  0.147  7.43e- 2     8
10   0.5    10  0.134  9.11e- 2     9
# ... with 64 more rows

> myglance(fit3a)
# A tibble: 1 x 6
  nulldev npasses  nobs family      n_lambda alpha
    <dbl>   <int> <int> <chr>          <int> <dbl>
1    276.    9888   100 multinomial       68     1

> mytidy(fit3a)
# A tibble: 4,784 x 4
# Groups:   step [68]
   class term   step estimate
   <chr> <chr> <dbl>    <dbl>
 1 1     ""        1   0.0432
 2 2     ""        1   0.117 
 3 3     ""        1  -0.0368
 4 4     ""        1  -0.124 
 5 1     ""        2   0.0475
 6 1     "V11"     2  -0.0353
 7 2     ""        2   0.117 
 8 2     "V11"     2   0.0113
 9 3     ""        2  -0.0325
10 3     "V11"     2  -0.0355
# ... with 4,774 more rows

> mytidy(fit3a, what = "dev")
# A tibble: 68 x 5
   alpha  step lambda dev.ratio    df
   <dbl> <int>  <dbl>     <dbl> <int>
 1     1     1 0.206  -1.61e-16     0
 2     1     2 0.187   1.11e- 2     1
 3     1     3 0.171   2.52e- 2     2
 4     1     4 0.156   4.01e- 2     2
 5     1     5 0.142   5.27e- 2     2
 6     1     6 0.129   6.34e- 2     2
 7     1     7 0.118   7.75e- 2     5
 8     1     8 0.107   9.45e- 2     6
 9     1     9 0.0977  1.16e- 1     7
10     1    10 0.0890  1.38e- 1     9
# ... with 58 more rows

> myglance(fit_cox)
# A tibble: 1 x 6
  nulldev npasses  nobs family n_lambda alpha
    <dbl>   <int> <int> <chr>     <int> <dbl>
1   8177.     444  1000 cox          51   0.5

> mytidy(fit_cox)
# A tibble: 696 x 3
# Groups:   step [50]
   term   step estimate
   <chr> <dbl>    <dbl>
 1 V6        2  -0.0247
 2 V1        3   0.0222
 3 V6        3  -0.0507
 4 V9        3   0.0121
 5 V1        4   0.0470
 6 V6        4  -0.0765
 7 V9        4   0.0378
 8 V1        5   0.0709
 9 V6        5  -0.101 
10 V9        5   0.0623
# ... with 686 more rows

> mytidy(fit_cox, what = "dev")
# A tibble: 51 x 5
   alpha  step lambda dev.ratio    df
   <dbl> <int>  <dbl>     <dbl> <int>
 1   0.5     1  0.474   0           0
 2   0.5     2  0.431   0.00137     1
 3   0.5     3  0.393   0.00444     3
 4   0.5     4  0.358   0.00805     3
 5   0.5     5  0.326   0.0113      3
 6   0.5     6  0.297   0.0151      4
 7   0.5     7  0.271   0.0185      4
 8   0.5     8  0.247   0.0216      4
 9   0.5     9  0.225   0.0243      5
10   0.5    10  0.205   0.0275      6
# ... with 41 more rows
> mytidy(fit_cox)
# A tibble: 696 x 3
# Groups:   step [50]
   term   step estimate
   <chr> <dbl>    <dbl>
 1 V6        2  -0.0247
 2 V1        3   0.0222
 3 V6        3  -0.0507
 4 V9        3   0.0121
 5 V1        4   0.0470
 6 V6        4  -0.0765
 7 V9        4   0.0378
 8 V1        5   0.0709
 9 V6        5  -0.101 
10 V9        5   0.0623
# ... with 686 more rows
> mytidy(fit_cox, what = "dev")
# A tibble: 51 x 5
   alpha  step lambda dev.ratio    df
   <dbl> <int>  <dbl>     <dbl> <int>
 1   0.5     1  0.474   0           0
 2   0.5     2  0.431   0.00137     1
 3   0.5     3  0.393   0.00444     3
 4   0.5     4  0.358   0.00805     3
 5   0.5     5  0.326   0.0113      3
 6   0.5     6  0.297   0.0151      4
 7   0.5     7  0.271   0.0185      4
 8   0.5     8  0.247   0.0216      4
 9   0.5     9  0.225   0.0243      5
10   0.5    10  0.205   0.0275      6
# ... with 41 more rows
…
